trabajo_personal
…
## The following objects are masked from 'package:base':
## 
##     date, intersect, setdiff, union

library(nycflights13)

vuelos <- nycflights13::flights

Encuentra todos los vuelos que llegaron ms de una hora tarde de lo previsto.

filter(vuelos, arr_delay > 60 | is.na(vuelos))

## # A tibble: 27,789 x 19
##     year month   day dep_time sched_dep_time dep_delay arr_time sched_arr_time
##    <int> <int> <int>    <int>          <int>     <dbl>    <int>          <int>
##  1  2013     1     1      811            630       101     1047            830
##  2  2013     1     1      848           1835       853     1001           1950
##  3  2013     1     1      957            733       144     1056            853
##  4  2013     1     1     1114            900       134     1447           1222
##  5  2013     1     1     1120            944        96     1331           1213
##  6  2013     1     1     1255           1200        55     1451           1330
##  7  2013     1     1     1301           1150        71     1518           1345
##  8  2013     1     1     1337           1220        77     1649           1531
##  9  2013     1     1     1342           1320        22     1617           1504
## 10  2013     1     1     1400           1250        70     1645           1502
## # ... with 27,779 more rows, and 11 more variables: arr_delay <dbl>,
## #   carrier <chr>, flight <int>, tailnum <chr>, origin <chr>, dest <chr>,
## #   air_time <dbl>, distance <dbl>, hour <dbl>, minute <dbl>, time_hour <dttm>

Encuentra todos los vuelos que volaron hacia San Francisco (aeropuertos SFO y OAK)

filter(vuelos, dest == c("SFK", "OAK"))

## # A tibble: 145 x 19
##     year month   day dep_time sched_dep_time dep_delay arr_time sched_arr_time
##    <int> <int> <int>    <int>          <int>     <dbl>    <int>          <int>
##  1  2013     1     1     1900           1845        15     2212           2227
##  2  2013     1     2     1839           1845        -6     2156           2227
##  3  2013     1     3     1950           1845        65     2228           2227
##  4  2013     1     4     2001           1845        76     2314           2227
##  5  2013     1     6     1844           1845        -1     2205           2227
##  6  2013     1    10     1929           1930        -1     2242           2312
##  7  2013     1    14     1930           1930         0     2256           2312
##  8  2013     1    17     1931           1930         1     2241           2312
##  9  2013     1    20     1925           1930        -5     2321           2312
## 10  2013     1    21     1926           1930        -4     2247           2312
## # ... with 135 more rows, and 11 more variables: arr_delay <dbl>,
## #   carrier <chr>, flight <int>, tailnum <chr>, origin <chr>, dest <chr>,
## #   air_time <dbl>, distance <dbl>, hour <dbl>, minute <dbl>, time_hour <dttm>

Encuentra todos los vuelos operados por United American (UA) o por American Airlines (AA)

filter(vuelos, carrier == c("UA", "AA"))

## # A tibble: 45,513 x 19
##     year month   day dep_time sched_dep_time dep_delay arr_time sched_arr_time
##    <int> <int> <int>    <int>          <int>     <dbl>    <int>          <int>
##  1  2013     1     1      517            515         2      830            819
##  2  2013     1     1      558            600        -2      753            745
##  3  2013     1     1      558            600        -2      924            917
##  4  2013     1     1      559            600        -1      854            902
##  5  2013     1     1      607            607         0      858            915
##  6  2013     1     1      611            600        11      945            931
##  7  2013     1     1      623            610        13      920            915
##  8  2013     1     1      623            627        -4      933            932
##  9  2013     1     1      646            645         1     1023           1030
## 10  2013     1     1      656            700        -4      854            850
## # ... with 45,503 more rows, and 11 more variables: arr_delay <dbl>,
## #   carrier <chr>, flight <int>, tailnum <chr>, origin <chr>, dest <chr>,
## #   air_time <dbl>, distance <dbl>, hour <dbl>, minute <dbl>, time_hour <dttm>

Encuentra todos los vuelos que salieron los meses de primavera (Abril, Mayo y Junio)

filter(vuelos, month == c(4,5,6))

## Warning in month == c(4, 5, 6): longitud de objeto mayor no es mltiplo de la
## longitud de uno menor

## # A tibble: 28,457 x 19
##     year month   day dep_time sched_dep_time dep_delay arr_time sched_arr_time
##    <int> <int> <int>    <int>          <int>     <dbl>    <int>          <int>
##  1  2013     4     1      454            500        -6      636            640
##  2  2013     4     1      534            540        -6      833            850
##  3  2013     4     1      551            600        -9      748            659
##  4  2013     4     1      554            600        -6      752            805
##  5  2013     4     1      555            600        -5      846            910
##  6  2013     4     1      555            600        -5      913            925
##  7  2013     4     1      556            600        -4      708            708
##  8  2013     4     1      557            600        -3      711            725
##  9  2013     4     1      559            600        -1      853            854
## 10  2013     4     1      601            605        -4      808            817
## # ... with 28,447 more rows, and 11 more variables: arr_delay <dbl>,
## #   carrier <chr>, flight <int>, tailnum <chr>, origin <chr>, dest <chr>,
## #   air_time <dbl>, distance <dbl>, hour <dbl>, minute <dbl>, time_hour <dttm>

Encuentra todos los vuelos que llegaron ms de una hora tarde pero salieron con menos de una hora de retraso.

filter(vuelos, arr_delay > 60, dep_delay < 60 | is.na(vuelos))

## # A tibble: 4,956 x 19
##     year month   day dep_time sched_dep_time dep_delay arr_time sched_arr_time
##    <int> <int> <int>    <int>          <int>     <dbl>    <int>          <int>
##  1  2013     1     1     1255           1200        55     1451           1330
##  2  2013     1     1     1342           1320        22     1617           1504
##  3  2013     1     1     1402           1323        39     1650           1526
##  4  2013     1     1     1411           1315        56     1717           1611
##  5  2013     1     1     1424           1349        35     1701           1556
##  6  2013     1     1     1428           1329        59     1803           1640
##  7  2013     1     1     1558           1534        24     1808           1703
##  8  2013     1     1     1604           1510        54     1817           1710
##  9  2013     1     1     1608           1535        33     2002           1850
## 10  2013     1     1     1630           1548        42     1902           1755
## # ... with 4,946 more rows, and 11 more variables: arr_delay <dbl>,
## #   carrier <chr>, flight <int>, tailnum <chr>, origin <chr>, dest <chr>,
## #   air_time <dbl>, distance <dbl>, hour <dbl>, minute <dbl>, time_hour <dttm>

Encuentra todos los vuelos que salieron con ms de una hora de retraso pero consiguieron llegar con menos de 30 minutos de retraso (el avin aceler en el aire)

filter(vuelos, arr_delay > 60, dep_delay < 30 | is.na(vuelos))

## # A tibble: 1,931 x 19
##     year month   day dep_time sched_dep_time dep_delay arr_time sched_arr_time
##    <int> <int> <int>    <int>          <int>     <dbl>    <int>          <int>
##  1  2013     1     1     1342           1320        22     1617           1504
##  2  2013     1     1     1558           1534        24     1808           1703
##  3  2013     1     1     1751           1745         6     2015           1910
##  4  2013     1     2      841            845        -4     1134           1024
##  5  2013     1     2      928            905        23     1331           1229
##  6  2013     1     2     1558           1600        -2     1923           1820
##  7  2013     1     6      654            655        -1     1025            921
##  8  2013     1     6      906            904         2     1313           1210
##  9  2013     1     6     1932           1910        22     2318           2204
## 10  2013     1     7     1348           1350        -2     1625           1518
## # ... with 1,921 more rows, and 11 more variables: arr_delay <dbl>,
## #   carrier <chr>, flight <int>, tailnum <chr>, origin <chr>, dest <chr>,
## #   air_time <dbl>, distance <dbl>, hour <dbl>, minute <dbl>, time_hour <dttm>

Encuentra todos los vuelos que salen entre medianoche y las 7 de la maana (vuelos nocturnos).

filter(vuelos, hour == c(0:7))

## # A tibble: 6,402 x 19
##     year month   day dep_time sched_dep_time dep_delay arr_time sched_arr_time
##    <int> <int> <int>    <int>          <int>     <dbl>    <int>          <int>
##  1  2013     1     1      554            558        -4      740            728
##  2  2013     1     1      555            600        -5      913            854
##  3  2013     1     1      559            600        -1      941            910
##  4  2013     1     1      606            610        -4      858            910
##  5  2013     1     1      622            630        -8     1017           1014
##  6  2013     1     1      629            630        -1      824            810
##  7  2013     1     1      643            645        -2      837            848
##  8  2013     1     1      655            655         0     1021           1030
##  9  2013     1     1      655            700        -5     1037           1045
## 10  2013     1     1      658            700        -2     1027           1025
## # ... with 6,392 more rows, and 11 more variables: arr_delay <dbl>,
## #   carrier <chr>, flight <int>, tailnum <chr>, origin <chr>, dest <chr>,
## #   air_time <dbl>, distance <dbl>, hour <dbl>, minute <dbl>, time_hour <dttm>
…
relacion_time <- mutate(vuelos, dep_time_min, sched_dep_time_min, dif_dep_delay)
relacion_time

## # A tibble: 336,776 x 23
##     year month   day dep_time sched_dep_time dep_delay arr_time sched_arr_time
##    <int> <int> <int>    <int>          <int>     <dbl>    <int>          <int>
##  1  2013     1     1      517            515         2      830            819
##  2  2013     1     1      533            529         4      850            830
##  3  2013     1     1      542            540         2      923            850
##  4  2013     1     1      544            545        -1     1004           1022
##  5  2013     1     1      554            600        -6      812            837
##  6  2013     1     1      554            558        -4      740            728
##  7  2013     1     1      555            600        -5      913            854
##  8  2013     1     1      557            600        -3      709            723
##  9  2013     1     1      557            600        -3      838            846
## 10  2013     1     1      558            600        -2      753            745
## # ... with 336,766 more rows, and 15 more variables: arr_delay <dbl>,
## #   carrier <chr>, flight <int>, tailnum <chr>, origin <chr>, dest <chr>,
## #   air_time <dbl>, distance <dbl>, hour <dbl>, minute <dbl>, time_hour <dttm>,
## #   dif_distancia <dbl>, dep_time_min <dbl>, sched_dep_time_min <dbl>,
## #   dif_dep_delay <dbl>
…
